[{"line":1,"elements":[{"line":4,"name":"Writing to a file","description":"","id":"writing-to-a-file","type":"scenario","keyword":"Scenario","steps":[{"name":"def temp = Java.type('misc.utils')","result":{"duration":8401700,"status":"passed"},"match":{"location":"karate","arguments":[]},"keyword":"*","line":6,"doc_string":{"content_type":"","value":"01:53:17.905 skipping bootstrap configuration: could not find or read file: classpath:karate-config.js","line":6}},{"name":"url \"https:\/\/reqres.in\/api\/users?page=2\"","result":{"duration":2885400,"status":"passed"},"match":{"location":"karate","arguments":[]},"keyword":"Given","line":7},{"name":"method get","result":{"duration":779645100,"status":"passed"},"match":{"location":"karate","arguments":[]},"keyword":"When","line":8,"doc_string":{"content_type":"","value":"01:53:18.249 request:\n1 > GET https:\/\/reqres.in\/api\/users?page=2\n1 > Accept-Encoding: gzip,deflate\n1 > Connection: Keep-Alive\n1 > Host: reqres.in\n1 > User-Agent: Apache-HttpClient\/4.5.12 (Java\/1.8.0_251)\n\n01:53:18.671 response time in milliseconds: 421.07\n1 < 200\n1 < Access-Control-Allow-Origin: *\n1 < Age: 1194\n1 < CF-Cache-Status: HIT\n1 < CF-RAY: 61c380fb2c2618b6-SIN\n1 < Cache-Control: max-age=14400\n1 < Connection: keep-alive\n1 < Content-Type: application\/json; charset=utf-8\n1 < Date: Thu, 04 Feb 2021 09:53:18 GMT\n1 < Etag: W\/\"406-ut0vzoCuidvyMf8arZpMpJ6ZRDw\"\n1 < Expect-CT: max-age=604800, report-uri=\"https:\/\/report-uri.cloudflare.com\/cdn-cgi\/beacon\/expect-ct\"\n1 < NEL: {\"max_age\":604800,\"report_to\":\"cf-nel\"}\n1 < Report-To: {\"endpoints\":[{\"url\":\"https:\\\/\\\/a.nel.cloudflare.com\\\/report?s=7jjDleHM22PjfXwpIzEWxRFMIWvly%2BPAI9vofffVfeiGKk5svYfb3t86tmcuWUqN85cLnZ%2F0V3AUy3JIXRXHdlCS%2FPCOy3v5Iw0%3D\"}],\"group\":\"cf-nel\",\"max_age\":604800}\n1 < Server: cloudflare\n1 < Set-Cookie: __cfduid=de2565d794856d69cac667ae2f1f9f9b31612432398; expires=Sat, 06-Mar-21 09:53:18 GMT; path=\/; domain=.reqres.in; HttpOnly; SameSite=Lax; Secure\n1 < Transfer-Encoding: chunked\n1 < Vary: Accept-Encoding\n1 < Via: 1.1 vegur\n1 < X-Powered-By: Express\n1 < cf-request-id: 080e0ef0f7000018b62598e000000001\n{\"page\":2,\"per_page\":6,\"total\":12,\"total_pages\":2,\"data\":[{\"id\":7,\"email\":\"michael.lawson@reqres.in\",\"first_name\":\"Michael\",\"last_name\":\"Lawson\",\"avatar\":\"https:\/\/reqres.in\/img\/faces\/7-image.jpg\"},{\"id\":8,\"email\":\"lindsay.ferguson@reqres.in\",\"first_name\":\"Lindsay\",\"last_name\":\"Ferguson\",\"avatar\":\"https:\/\/reqres.in\/img\/faces\/8-image.jpg\"},{\"id\":9,\"email\":\"tobias.funke@reqres.in\",\"first_name\":\"Tobias\",\"last_name\":\"Funke\",\"avatar\":\"https:\/\/reqres.in\/img\/faces\/9-image.jpg\"},{\"id\":10,\"email\":\"byron.fields@reqres.in\",\"first_name\":\"Byron\",\"last_name\":\"Fields\",\"avatar\":\"https:\/\/reqres.in\/img\/faces\/10-image.jpg\"},{\"id\":11,\"email\":\"george.edwards@reqres.in\",\"first_name\":\"George\",\"last_name\":\"Edwards\",\"avatar\":\"https:\/\/reqres.in\/img\/faces\/11-image.jpg\"},{\"id\":12,\"email\":\"rachel.howell@reqres.in\",\"first_name\":\"Rachel\",\"last_name\":\"Howell\",\"avatar\":\"https:\/\/reqres.in\/img\/faces\/12-image.jpg\"}],\"support\":{\"url\":\"https:\/\/reqres.in\/#support-heading\",\"text\":\"To keep ReqRes free, contributions towards server costs are appreciated!\"}}","line":8}},{"name":"status 200","result":{"duration":36000,"status":"passed"},"match":{"location":"karate","arguments":[]},"keyword":"Then","line":9},{"name":"def res = get response $.data.[0].email","result":{"duration":9964200,"status":"passed"},"match":{"location":"karate","arguments":[]},"keyword":"*","line":15},{"name":"print res","result":{"duration":145500,"status":"passed"},"match":{"location":"karate","arguments":[]},"keyword":"*","line":18,"doc_string":{"content_type":"","value":"01:53:18.718 [print] michael.lawson@reqres.in","line":18}},{"name":"temp.writeToFile(\"result.json\", res);","result":{"duration":9396900,"status":"passed"},"match":{"location":"karate","arguments":[]},"keyword":"*","line":19}]}],"name":"src\/test\/java\/featurefiles\/karate-16.feature","description":"Karate Test Suite 16\nWriting Response to an External File","id":"karate-test-suite-16","keyword":"Feature","uri":"src\/test\/java\/featurefiles\/karate-16.feature"}]