[{"line":1,"elements":[{"line":4,"name":"Writing to a file","description":"","id":"writing-to-a-file","type":"scenario","keyword":"Scenario","steps":[{"name":"def temp = Java.type('misc.utils')","result":{"duration":1759600,"status":"passed"},"match":{"location":"karate","arguments":[]},"keyword":"*","line":6,"doc_string":{"content_type":"","value":"02:08:13.911 From karate-config file","line":6}},{"name":"url \"https:\/\/reqres.in\/api\/users?page=2\"","result":{"duration":1097400,"status":"passed"},"match":{"location":"karate","arguments":[]},"keyword":"Given","line":7},{"name":"method get","result":{"duration":297249100,"status":"passed"},"match":{"location":"karate","arguments":[]},"keyword":"When","line":8,"doc_string":{"content_type":"","value":"02:08:13.911 request:\n1 > GET https:\/\/reqres.in\/api\/users?page=2\n1 > Accept-Encoding: gzip,deflate\n1 > Connection: Keep-Alive\n1 > Host: reqres.in\n1 > User-Agent: Apache-HttpClient\/4.5.12 (Java\/1.8.0_251)\n\n02:08:14.208 response time in milliseconds: 295.23\n1 < 200\n1 < Access-Control-Allow-Origin: *\n1 < Age: 1988\n1 < CF-Cache-Status: HIT\n1 < CF-RAY: 61cbd434f9c1a988-SIN\n1 < Cache-Control: max-age=14400\n1 < Connection: keep-alive\n1 < Content-Type: application\/json; charset=utf-8\n1 < Date: Fri, 05 Feb 2021 10:08:13 GMT\n1 < Etag: W\/\"406-ut0vzoCuidvyMf8arZpMpJ6ZRDw\"\n1 < Expect-CT: max-age=604800, report-uri=\"https:\/\/report-uri.cloudflare.com\/cdn-cgi\/beacon\/expect-ct\"\n1 < NEL: {\"max_age\":604800,\"report_to\":\"cf-nel\"}\n1 < Report-To: {\"endpoints\":[{\"url\":\"https:\\\/\\\/a.nel.cloudflare.com\\\/report?s=4v8Go2uJIeLpRLUK9%2F4RhE4yaXlL2ir3WPV4ZvREXAu%2FUUEiTTAa4V1d3K3ksEwkFXljnb1XRz2ONm40dNmj%2BllRk2UTROuYXOM%3D\"}],\"group\":\"cf-nel\",\"max_age\":604800}\n1 < Server: cloudflare\n1 < Set-Cookie: __cfduid=d14ee41cd022c3e6a88ba7497ce9936261612519693; expires=Sun, 07-Mar-21 10:08:13 GMT; path=\/; domain=.reqres.in; HttpOnly; SameSite=Lax; Secure\n1 < Transfer-Encoding: chunked\n1 < Vary: Accept-Encoding\n1 < Via: 1.1 vegur\n1 < X-Powered-By: Express\n1 < cf-request-id: 081342f5200000a9884f2a3000000001\n{\"page\":2,\"per_page\":6,\"total\":12,\"total_pages\":2,\"data\":[{\"id\":7,\"email\":\"michael.lawson@reqres.in\",\"first_name\":\"Michael\",\"last_name\":\"Lawson\",\"avatar\":\"https:\/\/reqres.in\/img\/faces\/7-image.jpg\"},{\"id\":8,\"email\":\"lindsay.ferguson@reqres.in\",\"first_name\":\"Lindsay\",\"last_name\":\"Ferguson\",\"avatar\":\"https:\/\/reqres.in\/img\/faces\/8-image.jpg\"},{\"id\":9,\"email\":\"tobias.funke@reqres.in\",\"first_name\":\"Tobias\",\"last_name\":\"Funke\",\"avatar\":\"https:\/\/reqres.in\/img\/faces\/9-image.jpg\"},{\"id\":10,\"email\":\"byron.fields@reqres.in\",\"first_name\":\"Byron\",\"last_name\":\"Fields\",\"avatar\":\"https:\/\/reqres.in\/img\/faces\/10-image.jpg\"},{\"id\":11,\"email\":\"george.edwards@reqres.in\",\"first_name\":\"George\",\"last_name\":\"Edwards\",\"avatar\":\"https:\/\/reqres.in\/img\/faces\/11-image.jpg\"},{\"id\":12,\"email\":\"rachel.howell@reqres.in\",\"first_name\":\"Rachel\",\"last_name\":\"Howell\",\"avatar\":\"https:\/\/reqres.in\/img\/faces\/12-image.jpg\"}],\"support\":{\"url\":\"https:\/\/reqres.in\/#support-heading\",\"text\":\"To keep ReqRes free, contributions towards server costs are appreciated!\"}}","line":8}},{"name":"status 200","result":{"duration":3400,"status":"passed"},"match":{"location":"karate","arguments":[]},"keyword":"Then","line":9},{"name":"def res = get response $.data.[0].email","result":{"duration":244300,"status":"passed"},"match":{"location":"karate","arguments":[]},"keyword":"*","line":15},{"name":"print res","result":{"duration":102500,"status":"passed"},"match":{"location":"karate","arguments":[]},"keyword":"*","line":18,"doc_string":{"content_type":"","value":"02:08:14.208 [print] michael.lawson@reqres.in","line":18}},{"name":"temp.writeToFile(\"result.json\", res);","result":{"duration":3354600,"status":"passed"},"match":{"location":"karate","arguments":[]},"keyword":"*","line":19,"doc_string":{"content_type":"","value":"02:08:14.208 after scenario inside config","line":19}}]},{"line":21,"name":"Reading Result File","description":"","id":"reading-result-file","type":"scenario","keyword":"Scenario","steps":[{"name":"def data = read(\"classpath:result.json\")","result":{"duration":5199300,"error_message":"com.intuit.karate.exception.KarateException: karate-16.feature:22 - evaluation (js) failed: read(\"classpath:result.json\"), java.lang.RuntimeException: evaluation (js) failed: michael.lawson@reqres.in, javax.script.ScriptException: <eval>:1:14 Expected ; but found error\r\nmichael.lawson@reqres.in\r\n              ^ in <eval> at line number 1 at column number 14\nstack trace: jdk.nashorn.api.scripting.NashornScriptEngine.throwAsScriptException(NashornScriptEngine.java:470)\nstack trace: com.intuit.karate.ScriptBindings.eval(ScriptBindings.java:155)","status":"failed"},"match":{"location":"karate","arguments":[]},"keyword":"*","line":22,"doc_string":{"content_type":"","value":"02:08:14.223 From karate-config file","line":22}},{"name":"print data","result":{"duration":0,"status":"skipped"},"match":{"location":"karate","arguments":[]},"keyword":"*","line":23,"doc_string":{"content_type":"","value":"02:08:14.223 after scenario inside config","line":23}}]}],"name":"featurefiles\/karate-16.feature","description":"Karate Test Suite 16\nWriting Response to an External File","id":"karate-test-suite-16","keyword":"Feature","uri":"featurefiles\/karate-16.feature"}]